# Blender v2.90.1 OBJ File: 'statue.blend'
# www.blender.org
mtllib statue.mtl
o Окружность
v 0.000000 0.000000 -1.000000
v -0.195090 0.000000 -0.980785
v -0.382683 0.000000 -0.923880
v -0.555570 0.000000 -0.831470
v -0.707107 0.000000 -0.707107
v -0.831470 0.000000 -0.555570
v -0.923880 0.000000 -0.382683
v -0.980785 0.000000 -0.195090
v -1.000000 0.000000 -0.000000
v -0.980785 0.000000 0.195090
v -0.923880 0.000000 0.382683
v -0.831470 0.000000 0.555570
v -0.707107 0.000000 0.707107
v -0.555570 0.000000 0.831470
v -0.382683 0.000000 0.923880
v -0.195090 0.000000 0.980785
v 0.000000 0.000000 1.000000
v 0.195091 0.000000 0.980785
v 0.382684 0.000000 0.923879
v 0.555571 0.000000 0.831469
v 0.707107 0.000000 0.707106
v 0.831470 0.000000 0.555570
v 0.923880 0.000000 0.382683
v 0.980785 0.000000 0.195089
v 1.000000 0.000000 -0.000001
v 0.980785 0.000000 -0.195091
v 0.923879 0.000000 -0.382684
v 0.831469 0.000000 -0.555571
v 0.707106 0.000000 -0.707108
v 0.555569 0.000000 -0.831470
v 0.382682 0.000000 -0.923880
v 0.195089 0.000000 -0.980786
v 0.000000 0.000000 -1.000000
v -0.195090 0.000000 -0.980785
v -0.382683 0.000000 -0.923880
v -0.555570 0.000000 -0.831470
v -0.707107 0.000000 -0.707107
v -0.831470 0.000000 -0.555570
v -0.923880 0.000000 -0.382683
v -0.980785 0.000000 -0.195090
v -1.000000 0.000000 -0.000000
v -0.980785 0.000000 0.195090
v -0.923880 0.000000 0.382683
v -0.831470 0.000000 0.555570
v -0.707107 0.000000 0.707107
v -0.555570 0.000000 0.831470
v -0.382683 0.000000 0.923880
v -0.195090 0.000000 0.980785
v 0.000000 0.000000 1.000000
v 0.195091 0.000000 0.980785
v 0.382684 0.000000 0.923879
v 0.555571 0.000000 0.831469
v 0.707107 0.000000 0.707106
v 0.831470 0.000000 0.555570
v 0.923880 0.000000 0.382683
v 0.980785 0.000000 0.195089
v 1.000000 0.000000 -0.000001
v 0.980785 0.000000 -0.195091
v 0.923879 0.000000 -0.382684
v 0.831469 0.000000 -0.555571
v 0.707106 0.000000 -0.707108
v 0.555569 0.000000 -0.831470
v 0.382682 0.000000 -0.923880
v 0.195089 0.000000 -0.980786
v 0.000000 0.000000 -1.000000
v -0.195090 0.000000 -0.980785
v -0.382683 0.000000 -0.923880
v -0.555570 0.000000 -0.831470
v -0.707107 0.000000 -0.707107
v -0.831470 0.000000 -0.555570
v -0.923880 0.000000 -0.382683
v -0.980785 0.000000 -0.195090
v -1.000000 0.000000 -0.000000
v -0.980785 0.000000 0.195090
v -0.923880 0.000000 0.382683
v -0.831470 0.000000 0.555570
v -0.707107 0.000000 0.707107
v -0.555570 0.000000 0.831470
v -0.382683 0.000000 0.923880
v -0.195090 0.000000 0.980785
v 0.000000 0.000000 1.000000
v 0.195091 0.000000 0.980785
v 0.382684 0.000000 0.923879
v 0.555571 0.000000 0.831469
v 0.707107 0.000000 0.707106
v 0.831470 0.000000 0.555570
v 0.923880 0.000000 0.382683
v 0.980785 0.000000 0.195089
v 1.000000 0.000000 -0.000001
v 0.980785 0.000000 -0.195091
v 0.923879 0.000000 -0.382684
v 0.831469 0.000000 -0.555571
v 0.707106 0.000000 -0.707108
v 0.555569 0.000000 -0.831470
v 0.382682 0.000000 -0.923880
v 0.195089 0.000000 -0.980786
v -0.005100 0.572068 -1.000000
v -0.200190 0.572068 -0.980785
v -0.387784 0.572068 -0.923880
v -0.560670 0.572068 -0.831470
v -0.712207 0.572068 -0.707107
v -0.836570 0.572068 -0.555570
v -0.928980 0.572068 -0.382684
v -0.985885 0.572068 -0.195090
v -1.005100 0.572068 -0.000000
v -0.985885 0.572068 0.195090
v -0.928980 0.572068 0.382683
v -0.836570 0.572068 0.555570
v -0.712207 0.572068 0.707107
v -0.560670 0.572068 0.831470
v -0.387783 0.572068 0.923880
v -0.200190 0.572068 0.980785
v -0.005100 0.572068 1.000000
v 0.189991 0.572068 0.980785
v 0.377584 0.572068 0.923879
v 0.550471 0.572068 0.831469
v 0.702007 0.572068 0.707106
v 0.826370 0.572068 0.555570
v 0.918780 0.572068 0.382683
v 0.975685 0.572068 0.195089
v 0.994900 0.572068 -0.000001
v 0.975685 0.572068 -0.195091
v 0.918779 0.572068 -0.382685
v 0.826369 0.572068 -0.555571
v 0.702006 0.572068 -0.707108
v 0.550469 0.572068 -0.831470
v 0.377582 0.572068 -0.923880
v 0.189989 0.572068 -0.980786
v -0.005100 0.572068 -1.000000
v -0.200190 0.572068 -0.980785
v -0.387784 0.572068 -0.923880
v -0.560670 0.572068 -0.831470
v -0.712207 0.572068 -0.707107
v -0.836570 0.572068 -0.555570
v -0.928980 0.572068 -0.382684
v -0.985885 0.572068 -0.195090
v -1.005100 0.572068 -0.000000
v -0.985885 0.572068 0.195090
v -0.928980 0.572068 0.382683
v -0.836570 0.572068 0.555570
v -0.712207 0.572068 0.707107
v -0.560670 0.572068 0.831470
v -0.387783 0.572068 0.923880
v -0.200190 0.572068 0.980785
v -0.005100 0.572068 1.000000
v 0.189991 0.572068 0.980785
v 0.377584 0.572068 0.923879
v 0.550471 0.572068 0.831469
v 0.702007 0.572068 0.707106
v 0.826370 0.572068 0.555570
v 0.918780 0.572068 0.382683
v 0.975685 0.572068 0.195089
v 0.994900 0.572068 -0.000001
v 0.975685 0.572068 -0.195091
v 0.918779 0.572068 -0.382685
v 0.826369 0.572068 -0.555571
v 0.702006 0.572068 -0.707108
v 0.550469 0.572068 -0.831470
v 0.377582 0.572068 -0.923880
v 0.189989 0.572068 -0.980786
v -0.005100 1.458089 -2.476652
v -0.488271 1.458089 -2.429064
v -0.952874 1.458089 -2.288128
v -1.381054 1.458089 -2.059261
v -1.756358 1.458089 -1.751257
v -2.064362 1.458089 -1.375954
v -2.293229 1.458089 -0.947774
v -2.434164 1.458089 -0.483171
v -2.481753 1.458089 0.000000
v -2.434165 1.458089 0.483171
v -2.293229 1.458089 0.947774
v -2.064362 1.458089 1.375955
v -1.756358 1.458089 1.751258
v -1.381054 1.458089 2.059262
v -0.952874 1.458089 2.288129
v -0.488270 1.458089 2.429065
v -0.005099 1.458089 2.476653
v 0.478072 1.458089 2.429065
v 0.942675 1.458089 2.288129
v 1.370856 1.458089 2.059261
v 1.746159 1.458089 1.751257
v 2.054163 1.458089 1.375953
v 2.283030 1.458089 0.947772
v 2.423965 1.458089 0.483169
v 2.471553 1.458089 -0.000002
v 2.423964 1.458089 -0.483173
v 2.283028 1.458089 -0.947776
v 2.054160 1.458089 -1.375957
v 1.746156 1.458089 -1.751260
v 1.370852 1.458089 -2.059263
v 0.942671 1.458089 -2.288130
v 0.478067 1.458089 -2.429065
v 0.000000 0.000000 -1.000000
v -0.195090 0.000000 -0.980785
v -0.382683 0.000000 -0.923880
v -0.555570 0.000000 -0.831470
v -0.707107 0.000000 -0.707107
v -0.831470 0.000000 -0.555570
v -0.923880 0.000000 -0.382683
v -0.980785 0.000000 -0.195090
v -1.000000 0.000000 -0.000000
v -0.980785 0.000000 0.195090
v -0.923880 0.000000 0.382683
v -0.831470 0.000000 0.555570
v -0.707107 0.000000 0.707107
v -0.555570 0.000000 0.831470
v -0.382683 0.000000 0.923880
v -0.195090 0.000000 0.980785
v 0.000000 0.000000 1.000000
v 0.195091 0.000000 0.980785
v 0.382684 0.000000 0.923879
v 0.555571 0.000000 0.831469
v 0.707107 0.000000 0.707106
v 0.831470 0.000000 0.555570
v 0.923880 0.000000 0.382683
v 0.980785 0.000000 0.195089
v 1.000000 0.000000 -0.000001
v 0.980785 0.000000 -0.195091
v 0.923879 0.000000 -0.382684
v 0.831469 0.000000 -0.555571
v 0.707106 0.000000 -0.707108
v 0.555569 0.000000 -0.831470
v 0.382682 0.000000 -0.923880
v 0.195089 0.000000 -0.980786
v -1.000000 0.000000 1.000000
v 1.000000 0.000000 1.000000
v -1.000000 0.000000 -1.000000
v 1.000000 0.000000 -1.000000
v -1.000000 0.000000 1.000000
v 1.000000 0.000000 1.000000
v -1.000000 0.000000 -1.000000
v 1.000000 0.000000 -1.000000
v 0.000000 0.084257 -1.000000
v -0.195090 0.084257 -0.980785
v -0.382683 0.084257 -0.923879
v -0.555570 0.084257 -0.831470
v -0.707107 0.084257 -0.707107
v -0.831470 0.084257 -0.555570
v -0.923880 0.084257 -0.382683
v -0.980785 0.084257 -0.195090
v -1.000000 0.084257 -0.000000
v -0.980785 0.084257 0.195090
v -0.923880 0.084257 0.382683
v -0.831470 0.084257 0.555570
v -0.707107 0.084257 0.707107
v -0.555570 0.084257 0.831470
v -0.382683 0.084257 0.923880
v -0.195090 0.084257 0.980785
v 0.000000 0.084257 1.000000
v 0.195091 0.084257 0.980785
v 0.382684 0.084257 0.923879
v 0.555571 0.084257 0.831469
v 0.707107 0.084257 0.707106
v 0.831470 0.084257 0.555570
v 0.923880 0.084257 0.382683
v 0.980785 0.084257 0.195090
v 1.000000 0.084257 -0.000001
v 0.980785 0.084257 -0.195091
v 0.923879 0.084257 -0.382684
v 0.831469 0.084257 -0.555571
v 0.707106 0.084257 -0.707108
v 0.555569 0.084257 -0.831470
v 0.382682 0.084257 -0.923880
v 0.195089 0.084257 -0.980785
v 0.000000 0.084257 -1.000000
v -0.195090 0.084257 -0.980785
v -0.382683 0.084257 -0.923879
v -0.555570 0.084257 -0.831470
v -0.707107 0.084257 -0.707107
v -0.831470 0.084257 -0.555570
v -0.923880 0.084257 -0.382683
v -0.980785 0.084257 -0.195090
v -1.000000 0.084257 -0.000000
v -0.980785 0.084257 0.195090
v -0.923880 0.084257 0.382683
v -0.831470 0.084257 0.555570
v -0.707107 0.084257 0.707107
v -0.555570 0.084257 0.831470
v -0.382683 0.084257 0.923880
v -0.195090 0.084257 0.980785
v 0.000000 0.084257 1.000000
v 0.195091 0.084257 0.980785
v 0.382684 0.084257 0.923879
v 0.555571 0.084257 0.831469
v 0.707107 0.084257 0.707106
v 0.831470 0.084257 0.555570
v 0.923880 0.084257 0.382683
v 0.980785 0.084257 0.195090
v 1.000000 0.084257 -0.000001
v 0.980785 0.084257 -0.195091
v 0.923879 0.084257 -0.382684
v 0.831469 0.084257 -0.555571
v 0.707106 0.084257 -0.707108
v 0.555569 0.084257 -0.831470
v 0.382682 0.084257 -0.923880
v 0.195089 0.084257 -0.980785
v 0.000000 0.084257 -1.000000
v -0.195090 0.084257 -0.980785
v -0.382683 0.084257 -0.923879
v -0.555570 0.084257 -0.831470
v -0.707107 0.084257 -0.707107
v -0.831470 0.084257 -0.555570
v -0.923880 0.084257 -0.382683
v -0.980785 0.084257 -0.195090
v -1.000000 0.084257 -0.000000
v -0.980785 0.084257 0.195090
v -0.923880 0.084257 0.382683
v -0.831470 0.084257 0.555570
v -0.707107 0.084257 0.707107
v -0.555570 0.084257 0.831470
v -0.382683 0.084257 0.923880
v -0.195090 0.084257 0.980785
v 0.000000 0.084257 1.000000
v 0.195091 0.084257 0.980785
v 0.382684 0.084257 0.923879
v 0.555571 0.084257 0.831469
v 0.707107 0.084257 0.707106
v 0.831470 0.084257 0.555570
v 0.923880 0.084257 0.382683
v 0.980785 0.084257 0.195090
v 1.000000 0.084257 -0.000001
v 0.980785 0.084257 -0.195091
v 0.923879 0.084257 -0.382684
v 0.831469 0.084257 -0.555571
v 0.707106 0.084257 -0.707108
v 0.555569 0.084257 -0.831470
v 0.382682 0.084257 -0.923880
v 0.195089 0.084257 -0.980785
v -0.005100 0.656325 -1.000000
v -0.200190 0.656325 -0.980785
v -0.387784 0.656325 -0.923880
v -0.560670 0.656325 -0.831470
v -0.712207 0.656325 -0.707107
v -0.836570 0.656325 -0.555570
v -0.928980 0.656325 -0.382683
v -0.985885 0.656325 -0.195090
v -1.005100 0.656325 -0.000000
v -0.985885 0.656325 0.195090
v -0.928980 0.656325 0.382683
v -0.836570 0.656325 0.555570
v -0.712207 0.656325 0.707107
v -0.560670 0.656325 0.831470
v -0.387783 0.656325 0.923880
v -0.200190 0.656325 0.980785
v -0.005100 0.656325 1.000000
v 0.189991 0.656325 0.980785
v 0.377584 0.656325 0.923879
v 0.550471 0.656325 0.831469
v 0.702007 0.656325 0.707106
v 0.826370 0.656325 0.555570
v 0.918780 0.656325 0.382683
v 0.975685 0.656325 0.195089
v 0.994900 0.656325 -0.000001
v 0.975685 0.656325 -0.195091
v 0.918779 0.656325 -0.382684
v 0.826369 0.656325 -0.555571
v 0.702006 0.656325 -0.707108
v 0.550469 0.656325 -0.831470
v 0.377582 0.656325 -0.923880
v 0.189989 0.656325 -0.980786
v -0.005100 0.656325 -1.000000
v -0.200190 0.656325 -0.980785
v -0.387784 0.656325 -0.923880
v -0.560670 0.656325 -0.831470
v -0.712207 0.656325 -0.707107
v -0.836570 0.656325 -0.555570
v -0.928980 0.656325 -0.382683
v -0.985885 0.656325 -0.195090
v -1.005100 0.656325 -0.000000
v -0.985885 0.656325 0.195090
v -0.928980 0.656325 0.382683
v -0.836570 0.656325 0.555570
v -0.712207 0.656325 0.707107
v -0.560670 0.656325 0.831470
v -0.387783 0.656325 0.923880
v -0.200190 0.656325 0.980785
v -0.005100 0.656325 1.000000
v 0.189991 0.656325 0.980785
v 0.377584 0.656325 0.923879
v 0.550471 0.656325 0.831469
v 0.702007 0.656325 0.707106
v 0.826370 0.656325 0.555570
v 0.918780 0.656325 0.382683
v 0.975685 0.656325 0.195089
v 0.994900 0.656325 -0.000001
v 0.975685 0.656325 -0.195091
v 0.918779 0.656325 -0.382684
v 0.826369 0.656325 -0.555571
v 0.702006 0.656325 -0.707108
v 0.550469 0.656325 -0.831470
v 0.377582 0.656325 -0.923880
v 0.189989 0.656325 -0.980786
v -0.005100 1.542346 -2.476652
v -0.488271 1.542346 -2.429064
v -0.952874 1.542346 -2.288128
v -1.381054 1.542346 -2.059261
v -1.756358 1.542346 -1.751257
v -2.064362 1.542346 -1.375954
v -2.293229 1.542346 -0.947774
v -2.434164 1.542346 -0.483171
v -2.481753 1.542346 0.000000
v -2.434165 1.542346 0.483171
v -2.293229 1.542346 0.947774
v -2.064362 1.542346 1.375955
v -1.756358 1.542346 1.751258
v -1.381054 1.542346 2.059262
v -0.952874 1.542346 2.288129
v -0.488270 1.542346 2.429065
v -0.005099 1.542346 2.476653
v 0.478072 1.542346 2.429065
v 0.942675 1.542346 2.288129
v 1.370856 1.542346 2.059261
v 1.746159 1.542346 1.751257
v 2.054163 1.542346 1.375953
v 2.283030 1.542346 0.947772
v 2.423965 1.542346 0.483169
v 2.471553 1.542346 -0.000002
v 2.423964 1.542346 -0.483173
v 2.283028 1.542346 -0.947776
v 2.054160 1.542346 -1.375957
v 1.746156 1.542346 -1.751260
v 1.370852 1.542346 -2.059263
v 0.942671 1.542346 -2.288130
v 0.478067 1.542346 -2.429065
v 0.000000 0.084257 -1.000000
v -0.195090 0.084257 -0.980785
v -0.382683 0.084257 -0.923879
v -0.555570 0.084257 -0.831470
v -0.707107 0.084257 -0.707107
v -0.831470 0.084257 -0.555570
v -0.923880 0.084257 -0.382683
v -0.980785 0.084257 -0.195090
v -1.000000 0.084257 -0.000000
v -0.980785 0.084257 0.195090
v -0.923880 0.084257 0.382683
v -0.831470 0.084257 0.555570
v -0.707107 0.084257 0.707107
v -0.555570 0.084257 0.831470
v -0.382683 0.084257 0.923880
v -0.195090 0.084257 0.980785
v 0.000000 0.084257 1.000000
v 0.195091 0.084257 0.980785
v 0.382684 0.084257 0.923879
v 0.555571 0.084257 0.831469
v 0.707107 0.084257 0.707106
v 0.831470 0.084257 0.555570
v 0.923880 0.084257 0.382683
v 0.980785 0.084257 0.195090
v 1.000000 0.084257 -0.000001
v 0.980785 0.084257 -0.195091
v 0.923879 0.084257 -0.382684
v 0.831469 0.084257 -0.555571
v 0.707106 0.084257 -0.707108
v 0.555569 0.084257 -0.831470
v 0.382682 0.084257 -0.923880
v 0.195089 0.084257 -0.980785
v -1.000000 0.084257 1.000000
v 1.000000 0.084257 1.000000
v -1.000000 0.084257 -1.000000
v 1.000000 0.084257 -1.000000
v -1.000000 0.084257 1.000000
v 1.000000 0.084257 1.000000
v -1.000000 0.084257 -1.000000
v 1.000000 0.084257 -1.000000
vt 0.000000 0.000000
vt 0.000000 0.000000
vt 0.000000 0.000000
vt 0.000000 0.000000
vt 0.000000 0.000000
vt 0.000000 0.000000
vt 0.000000 0.000000
vt 0.000000 0.000000
vt 0.000000 0.000000
vt 0.000000 0.000000
vt 0.000000 0.000000
vt 0.000000 0.000000
vt 0.000000 0.000000
vt 0.000000 0.000000
vt 0.000000 0.000000
vt 0.000000 0.000000
vt 0.000000 0.000000
vt 0.000000 0.000000
vt 0.000000 0.000000
vt 0.000000 0.000000
vt 0.000000 0.000000
vt 0.000000 0.000000
vt 0.000000 0.000000
vt 0.000000 0.000000
vt 0.000000 0.000000
vt 0.000000 0.000000
vt 0.000000 0.000000
vt 0.000000 0.000000
vt 0.000000 0.000000
vt 0.000000 0.000000
vt 0.000000 0.000000
vt 0.000000 0.000000
vt 0.000000 0.000000
vt 0.000000 0.000000
vt 0.000000 0.000000
vt 0.000000 0.000000
vt 0.000000 0.000000
vt 0.000000 0.000000
vt 0.000000 0.000000
vt 0.000000 0.000000
vt 0.000000 0.000000
vt 0.000000 0.000000
vt 0.000000 0.000000
vt 0.000000 0.000000
vt 0.000000 0.000000
vt 0.000000 0.000000
vt 0.000000 0.000000
vt 0.000000 0.000000
vt 0.000000 0.000000
vt 0.000000 0.000000
vt 0.000000 0.000000
vt 0.000000 0.000000
vt 0.000000 0.000000
vt 0.000000 0.000000
vt 0.000000 0.000000
vt 0.000000 0.000000
vt 0.000000 0.000000
vt 0.000000 0.000000
vt 0.000000 0.000000
vt 0.000000 0.000000
vt 0.000000 0.000000
vt 0.000000 0.000000
vt 0.000000 0.000000
vt 0.000000 0.000000
vt 0.000000 0.000000
vt 0.000000 0.000000
vt 0.000000 0.000000
vt 0.000000 0.000000
vt 0.000000 0.000000
vt 0.000000 0.000000
vt 0.000000 0.000000
vt 0.000000 0.000000
vt 0.000000 0.000000
vt 0.000000 0.000000
vt 0.000000 0.000000
vt 0.000000 0.000000
vt 0.000000 0.000000
vt 0.000000 0.000000
vt 0.000000 0.000000
vt 0.000000 0.000000
vt 0.000000 0.000000
vt 0.000000 0.000000
vt 0.000000 0.000000
vt 0.000000 0.000000
vt 0.000000 0.000000
vt 0.000000 0.000000
vt 0.000000 0.000000
vt 0.000000 0.000000
vt 0.000000 0.000000
vt 0.000000 0.000000
vt 0.000000 0.000000
vt 0.000000 0.000000
vt 0.000000 0.000000
vt 0.000000 0.000000
vt 0.000000 0.000000
vt 0.000000 0.000000
vt 0.000000 0.000000
vt 0.000000 0.000000
vt 0.000000 0.000000
vt 0.000000 0.000000
vt 0.000000 0.000000
vt 0.000000 0.000000
vt 0.000000 0.000000
vt 0.000000 0.000000
vt 0.000000 0.000000
vt 0.000000 0.000000
vt 0.000000 0.000000
vt 0.000000 0.000000
vt 0.000000 0.000000
vt 0.000000 0.000000
vt 0.000000 0.000000
vt 0.000000 0.000000
vt 0.000000 0.000000
vt 0.000000 0.000000
vt 0.000000 0.000000
vt 0.000000 0.000000
vt 0.000000 0.000000
vt 0.000000 0.000000
vt 0.000000 0.000000
vt 0.000000 0.000000
vt 0.000000 0.000000
vt 0.000000 0.000000
vt 0.000000 0.000000
vt 0.000000 0.000000
vt 0.000000 0.000000
vt 0.000000 0.000000
vt 0.000000 0.000000
vt 0.000000 0.000000
vt 0.000000 0.000000
vt 0.000000 0.000000
vt 0.000000 0.000000
vt 0.000000 0.000000
vt 0.000000 0.000000
vt 0.000000 0.000000
vt 0.000000 0.000000
vt 0.000000 0.000000
vt 0.000000 0.000000
vt 0.000000 0.000000
vt 0.000000 0.000000
vt 0.000000 0.000000
vt 0.000000 0.000000
vt 0.000000 0.000000
vt 0.000000 0.000000
vt 0.000000 0.000000
vt 0.000000 0.000000
vt 0.000000 0.000000
vt 0.000000 0.000000
vt 0.000000 0.000000
vt 0.000000 0.000000
vt 0.000000 0.000000
vt 0.000000 0.000000
vt 0.000000 0.000000
vt 0.000000 0.000000
vt 0.000000 0.000000
vt 0.000000 0.000000
vt 0.000000 0.000000
vt 0.000000 0.000000
vt 0.000000 0.000000
vt 0.000000 0.000000
vt 0.000000 0.000000
vt 0.000000 0.000000
vt 0.000000 0.000000
vt 0.000000 0.000000
vt 0.000000 0.000000
vt 0.000000 0.000000
vt 0.000000 0.000000
vt 0.000000 0.000000
vt 0.000000 0.000000
vt 0.000000 0.000000
vt 0.000000 0.000000
vt 0.000000 0.000000
vt 0.000000 0.000000
vt 0.000000 0.000000
vt 0.000000 0.000000
vt 0.000000 0.000000
vt 0.000000 0.000000
vt 0.000000 0.000000
vt 0.000000 0.000000
vt 0.000000 0.000000
vt 0.000000 0.000000
vt 0.000000 0.000000
vt 0.000000 0.000000
vt 0.000000 0.000000
vt 0.000000 0.000000
vt 0.000000 0.000000
vt 0.000000 0.000000
vt 0.000000 0.000000
vt 0.000000 0.000000
vt 0.000000 0.000000
vt 0.000000 0.000000
vt 0.000000 0.000000
vt 0.000000 0.000000
vt 0.000000 0.000000
vt 1.000000 0.000000
vt 1.000000 1.000000
vt 0.000000 1.000000
vt 0.000000 0.000000
vt 0.000000 1.000000
vt 1.000000 1.000000
vt 1.000000 0.000000
vt 0.000000 0.000000
vt 0.000000 0.000000
vt 0.000000 0.000000
vt 0.000000 0.000000
vt 0.000000 0.000000
vt 0.000000 0.000000
vt 0.000000 0.000000
vt 0.000000 0.000000
vt 0.000000 0.000000
vt 0.000000 0.000000
vt 0.000000 0.000000
vt 0.000000 0.000000
vt 0.000000 0.000000
vt 0.000000 0.000000
vt 0.000000 0.000000
vt 0.000000 0.000000
vt 0.000000 0.000000
vt 0.000000 0.000000
vt 0.000000 0.000000
vt 0.000000 0.000000
vt 0.000000 0.000000
vt 0.000000 0.000000
vt 0.000000 0.000000
vt 0.000000 0.000000
vt 0.000000 0.000000
vt 0.000000 0.000000
vt 0.000000 0.000000
vt 0.000000 0.000000
vt 0.000000 0.000000
vt 0.000000 0.000000
vt 0.000000 0.000000
vt 0.000000 0.000000
vt 0.000000 0.000000
vt 0.000000 0.000000
vt 0.000000 0.000000
vt 0.000000 0.000000
vt 0.000000 0.000000
vt 0.000000 0.000000
vt 0.000000 0.000000
vt 0.000000 0.000000
vt 0.000000 0.000000
vt 0.000000 0.000000
vt 0.000000 0.000000
vt 0.000000 0.000000
vt 0.000000 0.000000
vt 0.000000 0.000000
vt 0.000000 0.000000
vt 0.000000 0.000000
vt 0.000000 0.000000
vt 0.000000 0.000000
vt 0.000000 0.000000
vt 0.000000 0.000000
vt 0.000000 0.000000
vt 0.000000 0.000000
vt 0.000000 0.000000
vt 0.000000 0.000000
vt 0.000000 0.000000
vt 0.000000 0.000000
vt 0.000000 0.000000
vt 0.000000 0.000000
vt 0.000000 0.000000
vt 0.000000 0.000000
vt 0.000000 0.000000
vt 0.000000 0.000000
vt 0.000000 0.000000
vt 0.000000 0.000000
vt 0.000000 0.000000
vt 0.000000 0.000000
vt 0.000000 0.000000
vt 0.000000 0.000000
vt 0.000000 0.000000
vt 0.000000 0.000000
vt 0.000000 0.000000
vt 0.000000 0.000000
vt 0.000000 0.000000
vt 0.000000 0.000000
vt 0.000000 0.000000
vt 0.000000 0.000000
vt 0.000000 0.000000
vt 0.000000 0.000000
vt 0.000000 0.000000
vt 0.000000 0.000000
vt 0.000000 0.000000
vt 0.000000 0.000000
vt 0.000000 0.000000
vt 0.000000 0.000000
vt 0.000000 0.000000
vt 0.000000 0.000000
vt 0.000000 0.000000
vt 0.000000 0.000000
vt 0.000000 0.000000
vt 0.000000 0.000000
vt 0.000000 0.000000
vt 0.000000 0.000000
vt 0.000000 0.000000
vt 0.000000 0.000000
vt 0.000000 0.000000
vt 0.000000 0.000000
vt 0.000000 0.000000
vt 0.000000 0.000000
vt 0.000000 0.000000
vt 0.000000 0.000000
vt 0.000000 0.000000
vt 0.000000 0.000000
vt 0.000000 0.000000
vt 0.000000 0.000000
vt 0.000000 0.000000
vt 0.000000 0.000000
vt 0.000000 0.000000
vt 0.000000 0.000000
vt 0.000000 0.000000
vt 0.000000 0.000000
vt 0.000000 0.000000
vt 0.000000 0.000000
vt 0.000000 0.000000
vt 0.000000 0.000000
vt 0.000000 0.000000
vt 0.000000 0.000000
vt 0.000000 0.000000
vt 0.000000 0.000000
vt 0.000000 0.000000
vt 0.000000 0.000000
vt 0.000000 0.000000
vt 0.000000 0.000000
vt 0.000000 0.000000
vt 0.000000 0.000000
vt 0.000000 0.000000
vt 0.000000 0.000000
vt 0.000000 0.000000
vt 0.000000 0.000000
vt 0.000000 0.000000
vt 0.000000 0.000000
vt 0.000000 0.000000
vt 0.000000 0.000000
vt 0.000000 0.000000
vt 0.000000 0.000000
vt 0.000000 0.000000
vt 0.000000 0.000000
vt 0.000000 0.000000
vt 0.000000 0.000000
vt 0.000000 0.000000
vt 0.000000 0.000000
vt 0.000000 0.000000
vt 0.000000 0.000000
vt 0.000000 0.000000
vt 0.000000 0.000000
vt 0.000000 0.000000
vt 0.000000 0.000000
vt 0.000000 0.000000
vt 0.000000 0.000000
vt 0.000000 0.000000
vt 0.000000 0.000000
vt 0.000000 0.000000
vt 0.000000 0.000000
vt 0.000000 0.000000
vt 0.000000 0.000000
vt 0.000000 0.000000
vt 0.000000 0.000000
vt 0.000000 0.000000
vt 0.000000 0.000000
vt 0.000000 0.000000
vt 0.000000 0.000000
vt 0.000000 0.000000
vt 0.000000 0.000000
vt 0.000000 0.000000
vt 0.000000 0.000000
vt 0.000000 0.000000
vt 0.000000 0.000000
vt 0.000000 0.000000
vt 0.000000 0.000000
vt 0.000000 0.000000
vt 0.000000 0.000000
vt 0.000000 0.000000
vt 0.000000 0.000000
vt 0.000000 0.000000
vt 0.000000 0.000000
vt 0.000000 0.000000
vt 0.000000 0.000000
vt 0.000000 0.000000
vt 0.000000 0.000000
vt 0.000000 0.000000
vt 0.000000 0.000000
vt 0.000000 0.000000
vt 0.000000 0.000000
vt 0.000000 0.000000
vt 0.000000 0.000000
vt 0.000000 0.000000
vt 0.000000 0.000000
vt 0.000000 0.000000
vt 0.000000 0.000000
vt 0.000000 0.000000
vt 0.000000 0.000000
vt 0.000000 0.000000
vt 0.000000 1.000000
vt 1.000000 1.000000
vt 1.000000 0.000000
vt 0.000000 0.000000
vt 1.000000 0.000000
vt 1.000000 1.000000
vt 0.000000 1.000000
vt 0.000000 0.000000
vt 0.000000 0.000000
vt 0.000000 0.000000
vt 0.000000 0.000000
vt 0.000000 0.000000
vt 0.000000 0.000000
vt 0.000000 0.000000
vt 0.000000 0.000000
vt 0.000000 0.000000
vt 0.000000 0.000000
vt 0.000000 0.000000
vt 0.000000 0.000000
vt 0.000000 0.000000
vt 0.000000 0.000000
vt 0.000000 0.000000
vt 0.000000 0.000000
vt 0.000000 0.000000
vt 0.000000 0.000000
vt 0.000000 0.000000
vt 0.000000 0.000000
vt 0.000000 0.000000
vt 0.000000 0.000000
vt 0.000000 0.000000
vt 0.000000 0.000000
vt 0.000000 0.000000
vt 0.000000 0.000000
vt 0.000000 0.000000
vt 0.000000 0.000000
vt 0.000000 0.000000
vt 0.000000 0.000000
vt 0.000000 0.000000
vt 0.000000 0.000000
vt 0.000000 0.000000
vt 0.000000 0.000000
vt 0.000000 0.000000
vt 0.000000 0.000000
vt 0.000000 0.000000
vt 0.000000 0.000000
vt 0.000000 0.000000
vt 0.000000 0.000000
vt 0.000000 0.000000
vt 0.000000 0.000000
vt 0.000000 0.000000
vt 0.000000 0.000000
vt 0.000000 0.000000
vt 0.000000 0.000000
vt 0.000000 0.000000
vt 0.000000 0.000000
vt 0.000000 0.000000
vt 0.000000 0.000000
vt 0.000000 0.000000
vt 0.000000 0.000000
vt 0.000000 0.000000
vt 0.000000 0.000000
vt 0.000000 0.000000
vt 0.000000 0.000000
vt 0.000000 0.000000
vt 0.000000 0.000000
vt 0.000000 0.000000
vt 0.000000 0.000000
vt 0.000000 0.000000
vt 0.000000 0.000000
vt 0.000000 0.000000
vt 0.000000 0.000000
vn 0.0000 0.0000 1.0000
vn -0.8819 -0.0079 0.4714
vn 0.9951 0.0089 -0.0980
vn -0.7730 -0.0069 0.6344
vn 0.9569 0.0085 -0.2903
vn -0.6344 -0.0057 0.7730
vn 0.8819 0.0079 -0.4714
vn -0.4714 -0.0042 0.8819
vn -0.0980 -0.0009 -0.9952
vn 0.7730 0.0069 -0.6344
vn -0.2903 -0.0026 0.9569
vn -0.2903 -0.0026 -0.9569
vn 0.6344 0.0057 -0.7730
vn -0.0980 -0.0009 0.9952
vn -0.4714 -0.0042 -0.8819
vn 0.4714 0.0042 -0.8819
vn 0.0980 0.0009 0.9952
vn -0.6344 -0.0057 -0.7730
vn 0.2903 0.0026 -0.9569
vn 0.2903 0.0026 0.9569
vn -0.7730 -0.0069 -0.6344
vn 0.0980 0.0009 -0.9952
vn 0.4714 0.0042 0.8819
vn -0.8819 -0.0079 -0.4714
vn 0.6344 0.0057 0.7730
vn -0.9569 -0.0085 -0.2903
vn 0.7730 0.0069 0.6344
vn -0.9951 -0.0089 -0.0980
vn 0.8819 0.0079 0.4714
vn -0.9951 -0.0089 0.0980
vn 0.9569 0.0085 0.2903
vn -0.9569 -0.0085 0.2903
vn 0.9951 0.0089 0.0980
vn 0.0000 1.0000 0.0000
vn 0.0506 -0.8564 0.5138
vn -0.3276 -0.8564 -0.3991
vn 0.1499 -0.8564 -0.4941
vn 0.1499 -0.8564 0.4941
vn -0.3991 -0.8564 -0.3276
vn 0.0506 -0.8564 -0.5138
vn 0.2434 -0.8564 0.4554
vn -0.4554 -0.8564 -0.2434
vn 0.3276 -0.8564 0.3991
vn -0.4941 -0.8564 -0.1499
vn 0.3991 -0.8564 0.3276
vn -0.5138 -0.8564 -0.0506
vn 0.4554 -0.8564 0.2434
vn -0.5138 -0.8564 0.0506
vn 0.4941 -0.8564 0.1499
vn -0.4941 -0.8564 0.1499
vn 0.5138 -0.8564 0.0506
vn -0.4554 -0.8564 0.2434
vn 0.5138 -0.8564 -0.0506
vn -0.3991 -0.8564 0.3276
vn 0.4941 -0.8564 -0.1499
vn -0.3276 -0.8564 0.3991
vn 0.4554 -0.8564 -0.2434
vn -0.2434 -0.8564 0.4554
vn -0.0506 -0.8564 -0.5138
vn 0.3991 -0.8564 -0.3276
vn -0.1499 -0.8564 0.4941
vn -0.1499 -0.8564 -0.4941
vn 0.3276 -0.8564 -0.3991
vn -0.0506 -0.8564 0.5138
vn -0.2434 -0.8564 -0.4554
vn 0.2434 -0.8564 -0.4554
vn 0.0000 -1.0000 0.0000
vn -0.0506 0.8564 -0.5138
vn 0.3276 0.8564 0.3991
vn -0.1499 0.8564 0.4941
vn -0.1499 0.8564 -0.4941
vn 0.3991 0.8564 0.3276
vn -0.0506 0.8564 0.5138
vn -0.2434 0.8564 -0.4554
vn 0.4554 0.8564 0.2434
vn -0.3276 0.8564 -0.3991
vn 0.4941 0.8564 0.1499
vn -0.3991 0.8564 -0.3276
vn 0.5138 0.8564 0.0506
vn -0.4554 0.8564 -0.2434
vn 0.5138 0.8564 -0.0506
vn -0.4941 0.8564 -0.1499
vn 0.4941 0.8564 -0.1499
vn -0.5138 0.8564 -0.0506
vn 0.4554 0.8564 -0.2434
vn -0.5138 0.8564 0.0506
vn 0.3991 0.8564 -0.3276
vn -0.4941 0.8564 0.1499
vn 0.3276 0.8564 -0.3991
vn -0.4554 0.8564 0.2434
vn 0.2434 0.8564 -0.4554
vn 0.0506 0.8564 0.5138
vn -0.3991 0.8564 0.3276
vn 0.1499 0.8564 -0.4941
vn 0.1499 0.8564 0.4941
vn -0.3276 0.8564 0.3991
vn 0.0506 0.8564 -0.5138
vn 0.2434 0.8564 0.4554
vn -0.2434 0.8564 0.4554
vn -0.4714 0.0000 -0.8819
vn 0.2903 0.0000 -0.9569
vn -0.2903 -0.0000 0.9569
vn -0.7730 0.0000 -0.6344
vn 0.7730 -0.0000 0.6344
vn -0.6344 0.0000 -0.7730
vn 0.0980 -0.0000 -0.9952
vn -0.0980 -0.0000 0.9952
vn -0.8819 0.0000 -0.4714
vn 0.8819 -0.0000 0.4714
vn -0.9569 0.0000 -0.2903
vn 0.9569 0.0000 0.2903
vn -0.9952 0.0000 -0.0980
vn 0.9952 0.0000 0.0980
vn -0.9952 0.0000 0.0980
vn 0.9952 0.0000 -0.0980
vn -0.9569 0.0000 0.2903
vn 0.9569 0.0000 -0.2903
vn -0.8819 0.0000 0.4714
vn 0.8819 0.0000 -0.4714
vn -0.7730 0.0000 0.6344
vn 0.7730 0.0000 -0.6344
vn 0.0980 -0.0000 0.9952
vn -0.6344 0.0000 0.7730
vn 0.6344 0.0000 -0.7730
vn 0.2903 -0.0000 0.9569
vn -0.4714 0.0000 0.8819
vn 0.4714 0.0000 -0.8819
vn 0.4714 -0.0000 0.8819
vn 0.6344 -0.0000 0.7730
vn -0.0980 0.0000 -0.9952
vn -0.2903 0.0000 -0.9569
usemtl None
s off
f 14/1/1 46/2/1 45/3/1 13/4/1
f 28/5/1 60/6/1 59/7/1 27/8/1
f 15/9/1 47/10/1 46/2/1 14/1/1
f 2/11/1 34/12/1 33/13/1 1/14/1
f 29/15/1 61/16/1 60/6/1 28/5/1
f 16/17/1 48/18/1 47/10/1 15/9/1
f 3/19/1 35/20/1 34/12/1 2/11/1
f 30/21/1 62/22/1 61/16/1 29/15/1
f 17/23/1 49/24/1 48/18/1 16/17/1
f 4/25/1 36/26/1 35/20/1 3/19/1
f 31/27/1 63/28/1 62/22/1 30/21/1
f 18/29/1 50/30/1 49/24/1 17/23/1
f 5/31/1 37/32/1 36/26/1 4/25/1
f 32/33/1 64/34/1 63/28/1 31/27/1
f 19/35/1 51/36/1 50/30/1 18/29/1
f 6/37/1 38/38/1 37/32/1 5/31/1
f 1/14/1 33/13/1 64/34/1 32/33/1
f 20/39/1 52/40/1 51/36/1 19/35/1
f 7/41/1 39/42/1 38/38/1 6/37/1
f 21/43/1 53/44/1 52/40/1 20/39/1
f 8/45/1 40/46/1 39/42/1 7/41/1
f 22/47/1 54/48/1 53/44/1 21/43/1
f 9/49/1 41/50/1 40/46/1 8/45/1
f 23/51/1 55/52/1 54/48/1 22/47/1
f 10/53/1 42/54/1 41/50/1 9/49/1
f 24/55/1 56/56/1 55/52/1 23/51/1
f 11/57/1 43/58/1 42/54/1 10/53/1
f 25/59/1 57/60/1 56/56/1 24/55/1
f 12/61/1 44/62/1 43/58/1 11/57/1
f 26/63/1 58/64/1 57/60/1 25/59/1
f 13/4/1 45/3/1 44/62/1 12/61/1
f 27/8/1 59/7/1 58/64/1 26/63/1
f 41/50/1 73/65/1 72/66/1 40/46/1
f 55/52/1 87/67/1 86/68/1 54/48/1
f 42/54/1 74/69/1 73/65/1 41/50/1
f 56/56/1 88/70/1 87/67/1 55/52/1
f 43/58/1 75/71/1 74/69/1 42/54/1
f 57/60/1 89/72/1 88/70/1 56/56/1
f 44/62/1 76/73/1 75/71/1 43/58/1
f 58/64/1 90/74/1 89/72/1 57/60/1
f 45/3/1 77/75/1 76/73/1 44/62/1
f 59/7/1 91/76/1 90/74/1 58/64/1
f 46/2/1 78/77/1 77/75/1 45/3/1
f 60/6/1 92/78/1 91/76/1 59/7/1
f 47/10/1 79/79/1 78/77/1 46/2/1
f 34/12/1 66/80/1 65/81/1 33/13/1
f 61/16/1 93/82/1 92/78/1 60/6/1
f 48/18/1 80/83/1 79/79/1 47/10/1
f 35/20/1 67/84/1 66/80/1 34/12/1
f 62/22/1 94/85/1 93/82/1 61/16/1
f 49/24/1 81/86/1 80/83/1 48/18/1
f 36/26/1 68/87/1 67/84/1 35/20/1
f 63/28/1 95/88/1 94/85/1 62/22/1
f 50/30/1 82/89/1 81/86/1 49/24/1
f 37/32/1 69/90/1 68/87/1 36/26/1
f 64/34/1 96/91/1 95/88/1 63/28/1
f 51/36/1 83/92/1 82/89/1 50/30/1
f 38/38/1 70/93/1 69/90/1 37/32/1
f 33/13/1 65/81/1 96/91/1 64/34/1
f 52/40/1 84/94/1 83/92/1 51/36/1
f 39/42/1 71/95/1 70/93/1 38/38/1
f 53/44/1 85/96/1 84/94/1 52/40/1
f 40/46/1 72/66/1 71/95/1 39/42/1
f 54/48/1 86/68/1 85/96/1 53/44/1
f 76/73/2 108/97/2 107/98/2 75/71/2
f 90/74/3 122/99/3 121/100/3 89/72/3
f 77/75/4 109/101/4 108/97/4 76/73/4
f 91/76/5 123/102/5 122/99/5 90/74/5
f 78/77/6 110/103/6 109/101/6 77/75/6
f 92/78/7 124/104/7 123/102/7 91/76/7
f 79/79/8 111/105/8 110/103/8 78/77/8
f 66/80/9 98/106/9 97/107/9 65/81/9
f 93/82/10 125/108/10 124/104/10 92/78/10
f 80/83/11 112/109/11 111/105/11 79/79/11
f 67/84/12 99/110/12 98/106/12 66/80/12
f 94/85/13 126/111/13 125/108/13 93/82/13
f 81/86/14 113/112/14 112/109/14 80/83/14
f 68/87/15 100/113/15 99/110/15 67/84/15
f 95/88/16 127/114/16 126/111/16 94/85/16
f 82/89/17 114/115/17 113/112/17 81/86/17
f 69/90/18 101/116/18 100/113/18 68/87/18
f 96/91/19 128/117/19 127/114/19 95/88/19
f 83/92/20 115/118/20 114/115/20 82/89/20
f 70/93/21 102/119/21 101/116/21 69/90/21
f 65/81/22 97/107/22 128/117/22 96/91/22
f 84/94/23 116/120/23 115/118/23 83/92/23
f 71/95/24 103/121/24 102/119/24 70/93/24
f 85/96/25 117/122/25 116/120/25 84/94/25
f 72/66/26 104/123/26 103/121/26 71/95/26
f 86/68/27 118/124/27 117/122/27 85/96/27
f 73/65/28 105/125/28 104/123/28 72/66/28
f 87/67/29 119/126/29 118/124/29 86/68/29
f 74/69/30 106/127/30 105/125/30 73/65/30
f 88/70/31 120/128/31 119/126/31 87/67/31
f 75/71/32 107/98/32 106/127/32 74/69/32
f 89/72/33 121/100/33 120/128/33 88/70/33
f 111/105/1 143/129/1 142/130/1 110/103/1
f 98/106/1 130/131/1 129/132/1 97/107/1
f 125/108/1 157/133/1 156/134/1 124/104/1
f 112/109/1 144/135/1 143/129/1 111/105/1
f 99/110/1 131/136/1 130/131/1 98/106/1
f 126/111/1 158/137/1 157/133/1 125/108/1
f 113/112/34 145/138/34 144/135/34 112/109/34
f 100/113/1 132/139/1 131/136/1 99/110/1
f 127/114/1 159/140/1 158/137/1 126/111/1
f 114/115/34 146/141/34 145/138/34 113/112/34
f 101/116/1 133/142/1 132/139/1 100/113/1
f 128/117/1 160/143/1 159/140/1 127/114/1
f 115/118/1 147/144/1 146/141/1 114/115/1
f 102/119/1 134/145/1 133/142/1 101/116/1
f 97/107/1 129/132/1 160/143/1 128/117/1
f 116/120/1 148/146/1 147/144/1 115/118/1
f 103/121/1 135/147/1 134/145/1 102/119/1
f 117/122/1 149/148/1 148/146/1 116/120/1
f 104/123/1 136/149/1 135/147/1 103/121/1
f 118/124/1 150/150/1 149/148/1 117/122/1
f 105/125/1 137/151/1 136/149/1 104/123/1
f 119/126/1 151/152/1 150/150/1 118/124/1
f 106/127/1 138/153/1 137/151/1 105/125/1
f 120/128/1 152/154/1 151/152/1 119/126/1
f 107/98/1 139/155/1 138/153/1 106/127/1
f 121/100/1 153/156/1 152/154/1 120/128/1
f 108/97/1 140/157/1 139/155/1 107/98/1
f 122/99/1 154/158/1 153/156/1 121/100/1
f 109/101/1 141/159/1 140/157/1 108/97/1
f 123/102/1 155/160/1 154/158/1 122/99/1
f 110/103/1 142/130/1 141/159/1 109/101/1
f 124/104/1 156/134/1 155/160/1 123/102/1
f 146/141/35 178/161/35 177/162/35 145/138/35
f 133/142/36 165/163/36 164/164/36 132/139/36
f 160/143/37 192/165/37 191/166/37 159/140/37
f 147/144/38 179/167/38 178/161/38 146/141/38
f 134/145/39 166/168/39 165/163/39 133/142/39
f 129/132/40 161/169/40 192/165/40 160/143/40
f 148/146/41 180/170/41 179/167/41 147/144/41
f 135/147/42 167/171/42 166/168/42 134/145/42
f 149/148/43 181/172/43 180/170/43 148/146/43
f 136/149/44 168/173/44 167/171/44 135/147/44
f 150/150/45 182/174/45 181/172/45 149/148/45
f 137/151/46 169/175/46 168/173/46 136/149/46
f 151/152/47 183/176/47 182/174/47 150/150/47
f 138/153/48 170/177/48 169/175/48 137/151/48
f 152/154/49 184/178/49 183/176/49 151/152/49
f 139/155/50 171/179/50 170/177/50 138/153/50
f 153/156/51 185/180/51 184/178/51 152/154/51
f 140/157/52 172/181/52 171/179/52 139/155/52
f 154/158/53 186/182/53 185/180/53 153/156/53
f 141/159/54 173/183/54 172/181/54 140/157/54
f 155/160/55 187/184/55 186/182/55 154/158/55
f 142/130/56 174/185/56 173/183/56 141/159/56
f 156/134/57 188/186/57 187/184/57 155/160/57
f 143/129/58 175/187/58 174/185/58 142/130/58
f 130/131/59 162/188/59 161/169/59 129/132/59
f 157/133/60 189/189/60 188/186/60 156/134/60
f 144/135/61 176/190/61 175/187/61 143/129/61
f 131/136/62 163/191/62 162/188/62 130/131/62
f 158/137/63 190/192/63 189/189/63 157/133/63
f 145/138/64 177/162/64 176/190/64 144/135/64
f 132/139/65 164/164/65 163/191/65 131/136/65
f 159/140/66 191/166/66 190/192/66 158/137/66
f 225/193/34 226/194/34 228/195/34 227/196/34
f 229/197/67 231/198/67 232/199/67 230/200/67
f 226/194/1 230/200/1 232/199/1 228/195/1
f 227/196/1 231/198/1 229/197/1 225/193/1
f 228/195/1 232/199/1 231/198/1 227/196/1
f 225/193/1 229/197/1 230/200/1 226/194/1
f 246/201/1 245/202/1 277/203/1 278/204/1
f 260/205/1 259/206/1 291/207/1 292/208/1
f 247/209/1 246/201/1 278/204/1 279/210/1
f 234/211/1 233/212/1 265/213/1 266/214/1
f 261/215/1 260/205/1 292/208/1 293/216/1
f 248/217/1 247/209/1 279/210/1 280/218/1
f 235/219/1 234/211/1 266/214/1 267/220/1
f 262/221/1 261/215/1 293/216/1 294/222/1
f 249/223/1 248/217/1 280/218/1 281/224/1
f 236/225/1 235/219/1 267/220/1 268/226/1
f 263/227/1 262/221/1 294/222/1 295/228/1
f 250/229/1 249/223/1 281/224/1 282/230/1
f 237/231/1 236/225/1 268/226/1 269/232/1
f 264/233/1 263/227/1 295/228/1 296/234/1
f 251/235/1 250/229/1 282/230/1 283/236/1
f 238/237/1 237/231/1 269/232/1 270/238/1
f 233/212/1 264/233/1 296/234/1 265/213/1
f 252/239/1 251/235/1 283/236/1 284/240/1
f 239/241/1 238/237/1 270/238/1 271/242/1
f 253/243/1 252/239/1 284/240/1 285/244/1
f 240/245/1 239/241/1 271/242/1 272/246/1
f 254/247/1 253/243/1 285/244/1 286/248/1
f 241/249/1 240/245/1 272/246/1 273/250/1
f 255/251/1 254/247/1 286/248/1 287/252/1
f 242/253/1 241/249/1 273/250/1 274/254/1
f 256/255/1 255/251/1 287/252/1 288/256/1
f 243/257/1 242/253/1 274/254/1 275/258/1
f 257/259/1 256/255/1 288/256/1 289/260/1
f 244/261/1 243/257/1 275/258/1 276/262/1
f 258/263/1 257/259/1 289/260/1 290/264/1
f 245/202/1 244/261/1 276/262/1 277/203/1
f 259/206/1 258/263/1 290/264/1 291/207/1
f 273/250/1 272/246/1 304/265/1 305/266/1
f 287/252/1 286/248/1 318/267/1 319/268/1
f 274/254/1 273/250/1 305/266/1 306/269/1
f 288/256/1 287/252/1 319/268/1 320/270/1
f 275/258/1 274/254/1 306/269/1 307/271/1
f 289/260/1 288/256/1 320/270/1 321/272/1
f 276/262/1 275/258/1 307/271/1 308/273/1
f 290/264/1 289/260/1 321/272/1 322/274/1
f 277/203/1 276/262/1 308/273/1 309/275/1
f 291/207/1 290/264/1 322/274/1 323/276/1
f 278/204/1 277/203/1 309/275/1 310/277/1
f 292/208/1 291/207/1 323/276/1 324/278/1
f 279/210/1 278/204/1 310/277/1 311/279/1
f 266/214/1 265/213/1 297/280/1 298/281/1
f 293/216/1 292/208/1 324/278/1 325/282/1
f 280/218/1 279/210/1 311/279/1 312/283/1
f 267/220/1 266/214/1 298/281/1 299/284/1
f 294/222/1 293/216/1 325/282/1 326/285/1
f 281/224/1 280/218/1 312/283/1 313/286/1
f 268/226/1 267/220/1 299/284/1 300/287/1
f 295/228/1 294/222/1 326/285/1 327/288/1
f 282/230/1 281/224/1 313/286/1 314/289/1
f 269/232/1 268/226/1 300/287/1 301/290/1
f 296/234/1 295/228/1 327/288/1 328/291/1
f 283/236/1 282/230/1 314/289/1 315/292/1
f 270/238/1 269/232/1 301/290/1 302/293/1
f 265/213/1 296/234/1 328/291/1 297/280/1
f 284/240/1 283/236/1 315/292/1 316/294/1
f 271/242/1 270/238/1 302/293/1 303/295/1
f 285/244/1 284/240/1 316/294/1 317/296/1
f 272/246/1 271/242/1 303/295/1 304/265/1
f 286/248/1 285/244/1 317/296/1 318/267/1
f 308/273/7 307/271/7 339/297/7 340/298/7
f 322/274/30 321/272/30 353/299/30 354/300/30
f 309/275/10 308/273/10 340/298/10 341/301/10
f 323/276/32 322/274/32 354/300/32 355/302/32
f 310/277/13 309/275/13 341/301/13 342/303/13
f 324/278/2 323/276/2 355/302/2 356/304/2
f 311/279/16 310/277/16 342/303/16 343/305/16
f 298/281/17 297/280/17 329/306/17 330/307/17
f 325/282/4 324/278/4 356/304/4 357/308/4
f 312/283/19 311/279/19 343/305/19 344/309/19
f 299/284/20 298/281/20 330/307/20 331/310/20
f 326/285/6 325/282/6 357/308/6 358/311/6
f 313/286/22 312/283/22 344/309/22 345/312/22
f 300/287/23 299/284/23 331/310/23 332/313/23
f 327/288/8 326/285/8 358/311/8 359/314/8
f 314/289/9 313/286/9 345/312/9 346/315/9
f 301/290/25 300/287/25 332/313/25 333/316/25
f 328/291/11 327/288/11 359/314/11 360/317/11
f 315/292/12 314/289/12 346/315/12 347/318/12
f 302/293/27 301/290/27 333/316/27 334/319/27
f 297/280/14 328/291/14 360/317/14 329/306/14
f 316/294/15 315/292/15 347/318/15 348/320/15
f 303/295/29 302/293/29 334/319/29 335/321/29
f 317/296/18 316/294/18 348/320/18 349/322/18
f 304/265/31 303/295/31 335/321/31 336/323/31
f 318/267/21 317/296/21 349/322/21 350/324/21
f 305/266/33 304/265/33 336/323/33 337/325/33
f 319/268/24 318/267/24 350/324/24 351/326/24
f 306/269/3 305/266/3 337/325/3 338/327/3
f 320/270/26 319/268/26 351/326/26 352/328/26
f 307/271/5 306/269/5 338/327/5 339/297/5
f 321/272/28 320/270/28 352/328/28 353/299/28
f 343/305/1 342/303/1 374/329/1 375/330/1
f 330/307/1 329/306/1 361/331/1 362/332/1
f 357/308/1 356/304/1 388/333/1 389/334/1
f 344/309/1 343/305/1 375/330/1 376/335/1
f 331/310/1 330/307/1 362/332/1 363/336/1
f 358/311/1 357/308/1 389/334/1 390/337/1
f 345/312/67 344/309/67 376/335/67 377/338/67
f 332/313/1 331/310/1 363/336/1 364/339/1
f 359/314/1 358/311/1 390/337/1 391/340/1
f 346/315/67 345/312/67 377/338/67 378/341/67
f 333/316/1 332/313/1 364/339/1 365/342/1
f 360/317/1 359/314/1 391/340/1 392/343/1
f 347/318/1 346/315/1 378/341/1 379/344/1
f 334/319/1 333/316/1 365/342/1 366/345/1
f 329/306/1 360/317/1 392/343/1 361/331/1
f 348/320/1 347/318/1 379/344/1 380/346/1
f 335/321/1 334/319/1 366/345/1 367/347/1
f 349/322/1 348/320/1 380/346/1 381/348/1
f 336/323/1 335/321/1 367/347/1 368/349/1
f 350/324/1 349/322/1 381/348/1 382/350/1
f 337/325/1 336/323/1 368/349/1 369/351/1
f 351/326/1 350/324/1 382/350/1 383/352/1
f 338/327/1 337/325/1 369/351/1 370/353/1
f 352/328/1 351/326/1 383/352/1 384/354/1
f 339/297/1 338/327/1 370/353/1 371/355/1
f 353/299/1 352/328/1 384/354/1 385/356/1
f 340/298/1 339/297/1 371/355/1 372/357/1
f 354/300/1 353/299/1 385/356/1 386/358/1
f 341/301/1 340/298/1 372/357/1 373/359/1
f 355/302/1 354/300/1 386/358/1 387/360/1
f 342/303/1 341/301/1 373/359/1 374/329/1
f 356/304/1 355/302/1 387/360/1 388/333/1
f 378/341/68 377/338/68 409/361/68 410/362/68
f 365/342/69 364/339/69 396/363/69 397/364/69
f 392/343/70 391/340/70 423/365/70 424/366/70
f 379/344/71 378/341/71 410/362/71 411/367/71
f 366/345/72 365/342/72 397/364/72 398/368/72
f 361/331/73 392/343/73 424/366/73 393/369/73
f 380/346/74 379/344/74 411/367/74 412/370/74
f 367/347/75 366/345/75 398/368/75 399/371/75
f 381/348/76 380/346/76 412/370/76 413/372/76
f 368/349/77 367/347/77 399/371/77 400/373/77
f 382/350/78 381/348/78 413/372/78 414/374/78
f 369/351/79 368/349/79 400/373/79 401/375/79
f 383/352/80 382/350/80 414/374/80 415/376/80
f 370/353/81 369/351/81 401/375/81 402/377/81
f 384/354/82 383/352/82 415/376/82 416/378/82
f 371/355/83 370/353/83 402/377/83 403/379/83
f 385/356/84 384/354/84 416/378/84 417/380/84
f 372/357/85 371/355/85 403/379/85 404/381/85
f 386/358/86 385/356/86 417/380/86 418/382/86
f 373/359/87 372/357/87 404/381/87 405/383/87
f 387/360/88 386/358/88 418/382/88 419/384/88
f 374/329/89 373/359/89 405/383/89 406/385/89
f 388/333/90 387/360/90 419/384/90 420/386/90
f 375/330/91 374/329/91 406/385/91 407/387/91
f 362/332/92 361/331/92 393/369/92 394/388/92
f 389/334/93 388/333/93 420/386/93 421/389/93
f 376/335/94 375/330/94 407/387/94 408/390/94
f 363/336/95 362/332/95 394/388/95 395/391/95
f 390/337/96 389/334/96 421/389/96 422/392/96
f 377/338/97 376/335/97 408/390/97 409/361/97
f 364/339/98 363/336/98 395/391/98 396/363/98
f 391/340/99 390/337/99 422/392/99 423/365/99
f 457/393/67 459/394/67 460/395/67 458/396/67
f 461/397/34 462/398/34 464/399/34 463/400/34
f 458/396/1 460/395/1 464/399/1 462/398/1
f 459/394/1 457/393/1 461/397/1 463/400/1
f 460/395/1 459/394/1 463/400/1 464/399/1
f 457/393/1 458/396/1 462/398/1 461/397/1
f 212/401/100 211/402/100 443/403/100 444/404/100
f 191/166/101 192/165/101 424/366/101 423/365/101
f 32/33/102 31/27/102 263/227/102 264/233/102
f 165/163/103 166/168/103 398/368/103 397/364/103
f 6/37/104 5/31/104 237/231/104 238/237/104
f 213/405/105 212/401/105 444/404/105 445/406/105
f 192/165/106 161/169/106 393/369/106 424/366/106
f 1/14/107 32/33/107 264/233/107 233/212/107
f 166/168/108 167/171/108 399/371/108 398/368/108
f 7/41/109 6/37/109 238/237/109 239/241/109
f 214/407/103 213/405/103 445/406/103 446/408/103
f 167/171/110 168/173/110 400/373/110 399/371/110
f 8/45/111 7/41/111 239/241/111 240/245/111
f 215/409/108 214/407/108 446/408/108 447/410/108
f 168/173/112 169/175/112 401/375/112 400/373/112
f 9/49/113 8/45/113 240/245/113 241/249/113
f 216/411/110 215/409/110 447/410/110 448/412/110
f 169/175/114 170/177/114 402/377/114 401/375/114
f 10/53/115 9/49/115 241/249/115 242/253/115
f 217/413/112 216/411/112 448/412/112 449/414/112
f 170/177/116 171/179/116 403/379/116 402/377/116
f 11/57/117 10/53/117 242/253/117 243/257/117
f 218/415/114 217/413/114 449/414/114 450/416/114
f 171/179/118 172/181/118 404/381/118 403/379/118
f 12/61/119 11/57/119 243/257/119 244/261/119
f 219/417/116 218/415/116 450/416/116 451/418/116
f 172/181/120 173/183/120 405/383/120 404/381/120
f 13/4/121 12/61/121 244/261/121 245/202/121
f 220/419/118 219/417/118 451/418/118 452/420/118
f 194/421/122 193/422/122 425/423/122 426/424/122
f 173/183/123 174/185/123 406/385/123 405/383/123
f 14/1/124 13/4/124 245/202/124 246/201/124
f 221/425/120 220/419/120 452/420/120 453/426/120
f 195/427/125 194/421/125 426/424/125 427/428/125
f 174/185/126 175/187/126 407/387/126 406/385/126
f 15/9/127 14/1/127 246/201/127 247/209/127
f 222/429/123 221/425/123 453/426/123 454/430/123
f 196/431/128 195/427/128 427/428/128 428/432/128
f 175/187/102 176/190/102 408/390/102 407/387/102
f 16/17/101 15/9/101 247/209/101 248/217/101
f 223/433/126 222/429/126 454/430/126 455/434/126
f 197/435/129 196/431/129 428/432/129 429/436/129
f 176/190/107 177/162/107 409/361/107 408/390/107
f 17/23/106 16/17/106 248/217/106 249/223/106
f 224/437/102 223/433/102 455/434/102 456/438/102
f 198/439/104 197/435/104 429/436/104 430/440/104
f 177/162/122 178/161/122 410/362/122 409/361/122
f 18/29/130 17/23/130 249/223/130 250/229/130
f 193/422/107 224/437/107 456/438/107 425/423/107
f 199/441/109 198/439/109 430/440/109 431/442/109
f 178/161/125 179/167/125 411/367/125 410/362/125
f 19/35/131 18/29/131 250/229/131 251/235/131
f 200/443/111 199/441/111 431/442/111 432/444/111
f 179/167/128 180/170/128 412/370/128 411/367/128
f 20/39/100 19/35/100 251/235/100 252/239/100
f 201/445/113 200/443/113 432/444/113 433/446/113
f 180/170/129 181/172/129 413/372/129 412/370/129
f 21/43/105 20/39/105 252/239/105 253/243/105
f 202/447/115 201/445/115 433/446/115 434/448/115
f 181/172/104 182/174/104 414/374/104 413/372/104
f 22/47/103 21/43/103 253/243/103 254/247/103
f 203/449/117 202/447/117 434/448/117 435/450/117
f 182/174/109 183/176/109 415/376/109 414/374/109
f 23/51/108 22/47/108 254/247/108 255/251/108
f 204/451/119 203/449/119 435/450/119 436/452/119
f 183/176/111 184/178/111 416/378/111 415/376/111
f 24/55/110 23/51/110 255/251/110 256/255/110
f 205/453/121 204/451/121 436/452/121 437/454/121
f 184/178/113 185/180/113 417/380/113 416/378/113
f 25/59/112 24/55/112 256/255/112 257/259/112
f 206/455/124 205/453/124 437/454/124 438/456/124
f 185/180/115 186/182/115 418/382/115 417/380/115
f 26/63/114 25/59/114 257/259/114 258/263/114
f 207/457/127 206/455/127 438/456/127 439/458/127
f 186/182/117 187/184/117 419/384/117 418/382/117
f 27/8/116 26/63/116 258/263/116 259/206/116
f 208/459/101 207/457/101 439/458/101 440/460/101
f 187/184/119 188/186/119 420/386/119 419/384/119
f 161/169/130 162/188/130 394/388/130 393/369/130
f 28/5/118 27/8/118 259/206/118 260/205/118
f 2/11/122 1/14/122 233/212/122 234/211/122
f 209/461/106 208/459/106 440/460/106 441/462/106
f 188/186/121 189/189/121 421/389/121 420/386/121
f 162/188/131 163/191/131 395/391/131 394/388/131
f 29/15/120 28/5/120 260/205/120 261/215/120
f 3/19/125 2/11/125 234/211/125 235/219/125
f 210/463/130 209/461/130 441/462/130 442/464/130
f 189/189/124 190/192/124 422/392/124 421/389/124
f 30/21/123 29/15/123 261/215/123 262/221/123
f 163/191/100 164/164/100 396/363/100 395/391/100
f 4/25/128 3/19/128 235/219/128 236/225/128
f 211/402/131 210/463/131 442/464/131 443/403/131
f 190/192/127 191/166/127 423/365/127 422/392/127
f 31/27/126 30/21/126 262/221/126 263/227/126
f 164/164/105 165/163/105 397/364/105 396/363/105
f 5/31/129 4/25/129 236/225/129 237/231/129
